isbot|avatar|name|time|message
false|alexey|Alexey|8:15 PM|<mark>@payments_engineers</mark>++
true|qitten|qitten|8:15 PM|<mark>@eric</mark> +1! (Points: 16)<br /><mark>@koh</mark> leveled up! (Points: 18)<br /><mark>@raj</mark> gained a level! (Points: 32)<br /><mark>@so</mark> leveled up! (Points: 14)<br /><mark>@zhiheng</mark> leveled up! (Points: 38)<br /><mark>@nipun</mark> leveled up! (Points: 23)


